Magic of Emotion
…
---
# Subtract text

```r
#Substract text
text_df <- tibble(text=result$text)
text_df <- text_df %>%
  unnest_tokens(word,text)
text_df
```

```
## # A tibble: 113,928 x 1
##    word    
##    <chr>   
##  1 american
##  2 airlines
##  3 reaches 
##  4 out     
##  5 to      
##  6 remind  
##  7 sen     
##  8 ted     
##  9 cruz    
## 10 about   
## # ... with 113,918 more rows
```

---
# Stop Word

```r
data("stop_words")
text_df <- text_df %>%
  anti_join(stop_words)
text_df
```

```
## # A tibble: 63,319 x 1
##    word    
##    <chr>   
##  1 american
##  2 airlines
##  3 reaches 
##  4 remind  
##  5 sen     
##  6 ted     
##  7 cruz    
##  8 mask    
##  9 amid    
## 10 covid   
## # ... with 63,309 more rows
```

---
# Custom Stop Word

```r
stopwd <- data.frame(word = c('t.co','https','http'))
text_df <- text_df %>%
  anti_join(stopwd)
text_df
```

```
## # A tibble: 58,629 x 1
##    word    
##    <chr>   
##  1 american
##  2 airlines
##  3 reaches 
##  4 remind  
##  5 sen     
##  6 ted     
##  7 cruz    
##  8 mask    
##  9 amid    
## 10 covid   
## # ... with 58,619 more rows
```
…
---
# Universal Dictionary
.pull-left[

```r
get_sentiments('nrc')
```

```
## # A tibble: 13,901 x 2
##    word        sentiment
##    <chr>       <chr>    
##  1 abacus      trust    
##  2 abandon     fear     
##  3 abandon     negative 
##  4 abandon     sadness  
##  5 abandoned   anger    
##  6 abandoned   fear     
##  7 abandoned   negative 
##  8 abandoned   sadness  
##  9 abandonment anger    
## 10 abandonment fear     
## # ... with 13,891 more rows
```
]
.pull-right[

```r
#Happy word contained
nrcjoy <- get_sentiments('nrc') %>%
  filter(sentiment == 'joy')
nrcjoy
```

```
## # A tibble: 689 x 2
##    word          sentiment
##    <chr>         <chr>    
##  1 absolution    joy      
##  2 abundance     joy      
##  3 abundant      joy      
##  4 accolade      joy      
##  5 accompaniment joy      
##  6 accomplish    joy      
##  7 accomplished  joy      
##  8 achieve       joy      
##  9 achievement   joy      
## 10 acrobat       joy      
## # ... with 679 more rows
```
…
